SystemC - lab1/lab1.vcd
$date
     May 14, 2020       13:22:15
$end

$version
 SystemC 2.3.2-Accellera --- May 13 2020 12:16:26
$end

$timescale
     1 ns
$end

$scope module SystemC $end
$var wire    1  aaaaa  clk       $end
$var wire    1  aaaab  reset       $end
$var wire    1  aaaac  sync       $end
$var wire    4  aaaad  count [3:0]  $end
$var wire    1  aaaae  impulses       $end
$upscope $end
$enddefinitions  $end

$comment
All initial values are dumped below at time 0 sec = 0 timescale units.
$end

$dumpvars
1aaaaa
0aaaab
0aaaac
b0 aaaad
0aaaae
$end

#5
0aaaaa

#10
1aaaaa

#15
0aaaaa

#20
1aaaaa

#25
0aaaaa

#30
1aaaaa

#35
0aaaaa

#40
1aaaaa

#45
0aaaaa

#50
1aaaaa

#55
0aaaaa

#60
1aaaaa

#65
0aaaaa

#70
1aaaaa

#75
0aaaaa

#80
1aaaaa

#85
0aaaaa

#90
1aaaaa

#95
0aaaaa

#100
1aaaaa

#105
0aaaaa

#110
1aaaaa

#115
0aaaaa

#120
1aaaaa

#125
0aaaaa

#130
1aaaaa

#135
0aaaaa

#140
1aaaaa

#145
0aaaaa

#150
1aaaaa

#155
0aaaaa

#160
1aaaaa

#165
0aaaaa

#170
1aaaaa

#175
0aaaaa

#180
1aaaaa

#185
0aaaaa

#190
1aaaaa

#195
0aaaaa

#200
1aaaaa

#205
0aaaaa

#210
1aaaaa
1aaaac
b1111 aaaad

#215
0aaaaa

#220
1aaaaa
0aaaac
1aaaae

#225
0aaaaa

#230
1aaaaa
0aaaae

#235
0aaaaa

#240
1aaaaa
1aaaae

#245
0aaaaa

#250
1aaaaa
0aaaae

#255
0aaaaa

#260
1aaaaa
1aaaae

#265
0aaaaa

#270
1aaaaa
0aaaae

#275
0aaaaa

#280
1aaaaa
1aaaae

#285
0aaaaa

#290
1aaaaa
0aaaae

#295
0aaaaa

#300
1aaaaa
1aaaae

#305
0aaaaa

#310
1aaaaa
0aaaae

#315
0aaaaa

#320
1aaaaa
1aaaae

#325
0aaaaa

#330
1aaaaa
0aaaae

#335
0aaaaa

#340
1aaaaa
1aaaae

#345
0aaaaa

#350
1aaaaa
0aaaae

#355
0aaaaa

#360
1aaaaa
1aaaae

#365
0aaaaa

#370
1aaaaa
0aaaae

#375
0aaaaa

#380
1aaaaa
1aaaae

#385
0aaaaa

#390
1aaaaa
0aaaae

#395
0aaaaa

#400
1aaaaa
1aaaae

#405
0aaaaa

#410
1aaaaa
0aaaae

#415
0aaaaa

#420
1aaaaa
1aaaae

#425
0aaaaa

#430
1aaaaa
0aaaae

#435
0aaaaa

#440
1aaaaa
1aaaae

#445
0aaaaa

#450
1aaaaa
0aaaae

#455
0aaaaa

#460
1aaaaa
1aaaae

#465
0aaaaa

#470
1aaaaa
0aaaae

#475
0aaaaa

#480
1aaaaa
1aaaae

#485
0aaaaa

#490
1aaaaa
0aaaae

#495
0aaaaa

#500
1aaaaa
1aaaae

#505
0aaaaa

#510
1aaaaa
0aaaae

