SystemC - decoder/decoder.vcd
$date
     May 24, 2020       14:49:28
$end

$version
 SystemC 2.3.2-Accellera --- May 13 2020 12:16:26
$end

$timescale
     1 ps
$end

$scope module SystemC $end
$var wire    1  aaaaa  enable       $end
$var wire    8  aaaab  input [7:0]  $end
$var wire   256  aaaac  output [255:0]  $end
$upscope $end
$enddefinitions  $end

$comment
All initial values are dumped below at time 0 sec = 0 timescale units.
$end

$dumpvars
0aaaaa
b0 aaaab
b0 aaaac
$end

#5000
1aaaaa
b1 aaaac

#10000
b1 aaaab
b10 aaaac

#15000
b10 aaaab
b100 aaaac

#20000
b11 aaaab
b1000 aaaac

#25000
b100 aaaab
b10000 aaaac

#30000
b101 aaaab
b100000 aaaac

#35000
b110 aaaab
b1000000 aaaac

#40000
b111 aaaab
b10000000 aaaac

#45000
b1000 aaaab
b100000000 aaaac

#50000
b1001 aaaab
b1000000000 aaaac

#55000
b1010 aaaab
b10000000000 aaaac

#60000
b1011 aaaab
b100000000000 aaaac

#65000
b1100 aaaab
b1000000000000 aaaac

#70000
b1101 aaaab
b10000000000000 aaaac

#75000
b1110 aaaab
b100000000000000 aaaac

#80000
b1111 aaaab
b1000000000000000 aaaac

#85000
b10000 aaaab
b10000000000000000 aaaac

#90000
b10001 aaaab
b100000000000000000 aaaac

#95000
b10010 aaaab
b1000000000000000000 aaaac

#100000
b10011 aaaab
b10000000000000000000 aaaac

#105000
b10100 aaaab
b100000000000000000000 aaaac

#110000
b10101 aaaab
b1000000000000000000000 aaaac

#115000
b10110 aaaab
b10000000000000000000000 aaaac

#120000
b10111 aaaab
b100000000000000000000000 aaaac

#125000
b11000 aaaab
b1000000000000000000000000 aaaac

#130000
b11001 aaaab
b10000000000000000000000000 aaaac

#135000
b11010 aaaab
b100000000000000000000000000 aaaac

#140000
b11011 aaaab
b1000000000000000000000000000 aaaac

#145000
b11100 aaaab
b10000000000000000000000000000 aaaac

#150000
b11101 aaaab
b100000000000000000000000000000 aaaac

#155000
b11110 aaaab
b1000000000000000000000000000000 aaaac

#160000
b11111 aaaab
b10000000000000000000000000000000 aaaac

#165000
b100000 aaaab
b100000000000000000000000000000000 aaaac

#170000
b100001 aaaab
b1000000000000000000000000000000000 aaaac

#175000
b100010 aaaab
b10000000000000000000000000000000000 aaaac

#180000
b100011 aaaab
b100000000000000000000000000000000000 aaaac

#185000
b100100 aaaab
b1000000000000000000000000000000000000 aaaac

#190000
b100101 aaaab
b10000000000000000000000000000000000000 aaaac

#195000
b100110 aaaab
b100000000000000000000000000000000000000 aaaac

#200000
b100111 aaaab
b1000000000000000000000000000000000000000 aaaac

#205000
b101000 aaaab
b10000000000000000000000000000000000000000 aaaac

#210000
b101001 aaaab
b100000000000000000000000000000000000000000 aaaac

#215000
b101010 aaaab
b1000000000000000000000000000000000000000000 aaaac

#220000
b101011 aaaab
b10000000000000000000000000000000000000000000 aaaac

#225000
b101100 aaaab
b100000000000000000000000000000000000000000000 aaaac

#230000
b101101 aaaab
b1000000000000000000000000000000000000000000000 aaaac

#235000
b101110 aaaab
b10000000000000000000000000000000000000000000000 aaaac

#240000
b101111 aaaab
b100000000000000000000000000000000000000000000000 aaaac

#245000
b110000 aaaab
b1000000000000000000000000000000000000000000000000 aaaac

#250000
b110001 aaaab
b10000000000000000000000000000000000000000000000000 aaaac

#255000
b110010 aaaab
b100000000000000000000000000000000000000000000000000 aaaac

#260000
b110011 aaaab
b1000000000000000000000000000000000000000000000000000 aaaac

#265000
b110100 aaaab
b10000000000000000000000000000000000000000000000000000 aaaac

#270000
b110101 aaaab
b100000000000000000000000000000000000000000000000000000 aaaac

#275000
b110110 aaaab
b1000000000000000000000000000000000000000000000000000000 aaaac

#280000
b110111 aaaab
b10000000000000000000000000000000000000000000000000000000 aaaac

#285000
b111000 aaaab
b100000000000000000000000000000000000000000000000000000000 aaaac

#290000
b111001 aaaab
b1000000000000000000000000000000000000000000000000000000000 aaaac

#295000
b111010 aaaab
b10000000000000000000000000000000000000000000000000000000000 aaaac

#300000
b111011 aaaab
b100000000000000000000000000000000000000000000000000000000000 aaaac

#305000
b111100 aaaab
b1000000000000000000000000000000000000000000000000000000000000 aaaac

#310000
b111101 aaaab
b10000000000000000000000000000000000000000000000000000000000000 aaaac

#315000
b111110 aaaab
b100000000000000000000000000000000000000000000000000000000000000 aaaac

#320000
b111111 aaaab
b1000000000000000000000000000000000000000000000000000000000000000 aaaac

#325000
b1000000 aaaab
b10000000000000000000000000000000000000000000000000000000000000000 aaaac

#330000
b1000001 aaaab
b100000000000000000000000000000000000000000000000000000000000000000 aaaac

#335000
b1000010 aaaab
b1000000000000000000000000000000000000000000000000000000000000000000 aaaac

#340000
b1000011 aaaab
b10000000000000000000000000000000000000000000000000000000000000000000 aaaac

#345000
b1000100 aaaab
b100000000000000000000000000000000000000000000000000000000000000000000 aaaac

#350000
b1000101 aaaab
b1000000000000000000000000000000000000000000000000000000000000000000000 aaaac

#355000
b1000110 aaaab
b10000000000000000000000000000000000000000000000000000000000000000000000 aaaac

#360000
b1000111 aaaab
b100000000000000000000000000000000000000000000000000000000000000000000000 aaaac

#365000
b1001000 aaaab
b1000000000000000000000000000000000000000000000000000000000000000000000000 aaaac

#370000
b1001001 aaaab
b10000000000000000000000000000000000000000000000000000000000000000000000000 aaaac

#375000
b1001010 aaaab
b100000000000000000000000000000000000000000000000000000000000000000000000000 aaaac

#380000
b1001011 aaaab
b1000000000000000000000000000000000000000000000000000000000000000000000000000 aaaac

#385000
b1001100 aaaab
b10000000000000000000000000000000000000000000000000000000000000000000000000000 aaaac

#390000
b1001101 aaaab
b100000000000000000000000000000000000000000000000000000000000000000000000000000 aaaac

#395000
b1001110 aaaab
b1000000000000000000000000000000000000000000000000000000000000000000000000000000 aaaac

#400000
b1001111 aaaab
b10000000000000000000000000000000000000000000000000000000000000000000000000000000 aaaac

#405000
b1010000 aaaab
b100000000000000000000000000000000000000000000000000000000000000000000000000000000 aaaac

#410000
b1010001 aaaab
b1000000000000000000000000000000000000000000000000000000000000000000000000000000000 aaaac

#415000
b1010010 aaaab
b10000000000000000000000000000000000000000000000000000000000000000000000000000000000 aaaac

#420000
b1010011 aaaab
b100000000000000000000000000000000000000000000000000000000000000000000000000000000000 aaaac

#425000
b1010100 aaaab
b1000000000000000000000000000000000000000000000000000000000000000000000000000000000000 aaaac

#430000
b1010101 aaaab
b10000000000000000000000000000000000000000000000000000000000000000000000000000000000000 aaaac

#435000
b1010110 aaaab
b100000000000000000000000000000000000000000000000000000000000000000000000000000000000000 aaaac

#440000
b1010111 aaaab
b1000000000000000000000000000000000000000000000000000000000000000000000000000000000000000 aaaac

#445000
b1011000 aaaab
b10000000000000000000000000000000000000000000000000000000000000000000000000000000000000000 aaaac

#450000
b1011001 aaaab
b100000000000000000000000000000000000000000000000000000000000000000000000000000000000000000 aaaac

#455000
b1011010 aaaab
b1000000000000000000000000000000000000000000000000000000000000000000000000000000000000000000 aaaac

#460000
b1011011 aaaab
b10000000000000000000000000000000000000000000000000000000000000000000000000000000000000000000 aaaac

#465000
b1011100 aaaab
b100000000000000000000000000000000000000000000000000000000000000000000000000000000000000000000 aaaac

#470000
b1011101 aaaab
b1000000000000000000000000000000000000000000000000000000000000000000000000000000000000000000000 aaaac

#475000
b1011110 aaaab
b10000000000000000000000000000000000000000000000000000000000000000000000000000000000000000000000 aaaac

#480000
b1011111 aaaab
b100000000000000000000000000000000000000000000000000000000000000000000000000000000000000000000000 aaaac

#485000
b1100000 aaaab
b1000000000000000000000000000000000000000000000000000000000000000000000000000000000000000000000000 aaaac

#490000
b1100001 aaaab
b10000000000000000000000000000000000000000000000000000000000000000000000000000000000000000000000000 aaaac

#495000
b1100010 aaaab
b100000000000000000000000000000000000000000000000000000000000000000000000000000000000000000000000000 aaaac

#500000
b1100011 aaaab
b1000000000000000000000000000000000000000000000000000000000000000000000000000000000000000000000000000 aaaac

#505000
b1100100 aaaab
b10000000000000000000000000000000000000000000000000000000000000000000000000000000000000000000000000000 aaaac

#510000
b1100101 aaaab
b100000000000000000000000000000000000000000000000000000000000000000000000000000000000000000000000000000 aaaac

#515000
b1100110 aaaab
b1000000000000000000000000000000000000000000000000000000000000000000000000000000000000000000000000000000 aaaac

#520000
b1100111 aaaab
b10000000000000000000000000000000000000000000000000000000000000000000000000000000000000000000000000000000 aaaac

#525000
b1101000 aaaab
b100000000000000000000000000000000000000000000000000000000000000000000000000000000000000000000000000000000 aaaac

#530000
b1101001 aaaab
b1000000000000000000000000000000000000000000000000000000000000000000000000000000000000000000000000000000000 aaaac

#535000
b1101010 aaaab
b10000000000000000000000000000000000000000000000000000000000000000000000000000000000000000000000000000000000 aaaac

#540000
b1101011 aaaab
b100000000000000000000000000000000000000000000000000000000000000000000000000000000000000000000000000000000000 aaaac

#545000
b1101100 aaaab
b1000000000000000000000000000000000000000000000000000000000000000000000000000000000000000000000000000000000000 aaaac

#550000
b1101101 aaaab
b10000000000000000000000000000000000000000000000000000000000000000000000000000000000000000000000000000000000000 aaaac

#555000
b1101110 aaaab
b100000000000000000000000000000000000000000000000000000000000000000000000000000000000000000000000000000000000000 aaaac

#560000
b1101111 aaaab
b1000000000000000000000000000000000000000000000000000000000000000000000000000000000000000000000000000000000000000 aaaac

#565000
b1110000 aaaab
b10000000000000000000000000000000000000000000000000000000000000000000000000000000000000000000000000000000000000000 aaaac

#570000
b1110001 aaaab
b100000000000000000000000000000000000000000000000000000000000000000000000000000000000000000000000000000000000000000 aaaac

#575000
b1110010 aaaab
b1000000000000000000000000000000000000000000000000000000000000000000000000000000000000000000000000000000000000000000 aaaac

#580000
b1110011 aaaab
b10000000000000000000000000000000000000000000000000000000000000000000000000000000000000000000000000000000000000000000 aaaac

#585000
b1110100 aaaab
b100000000000000000000000000000000000000000000000000000000000000000000000000000000000000000000000000000000000000000000 aaaac

#590000
b1110101 aaaab
b1000000000000000000000000000000000000000000000000000000000000000000000000000000000000000000000000000000000000000000000 aaaac

#595000
b1110110 aaaab
b10000000000000000000000000000000000000000000000000000000000000000000000000000000000000000000000000000000000000000000000 aaaac

#600000
b1110111 aaaab
b100000000000000000000000000000000000000000000000000000000000000000000000000000000000000000000000000000000000000000000000 aaaac

#605000
b1111000 aaaab
b1000000000000000000000000000000000000000000000000000000000000000000000000000000000000000000000000000000000000000000000000 aaaac

#610000
b1111001 aaaab
b10000000000000000000000000000000000000000000000000000000000000000000000000000000000000000000000000000000000000000000000000 aaaac

#615000
b1111010 aaaab
b100000000000000000000000000000000000000000000000000000000000000000000000000000000000000000000000000000000000000000000000000 aaaac

#620000
b1111011 aaaab
b1000000000000000000000000000000000000000000000000000000000000000000000000000000000000000000000000000000000000000000000000000 aaaac

#625000
b1111100 aaaab
b10000000000000000000000000000000000000000000000000000000000000000000000000000000000000000000000000000000000000000000000000000 aaaac

#630000
b1111101 aaaab
b100000000000000000000000000000000000000000000000000000000000000000000000000000000000000000000000000000000000000000000000000000 aaaac

#635000
b1111110 aaaab
b1000000000000000000000000000000000000000000000000000000000000000000000000000000000000000000000000000000000000000000000000000000 aaaac

#640000
b1111111 aaaab
b10000000000000000000000000000000000000000000000000000000000000000000000000000000000000000000000000000000000000000000000000000000 aaaac

#645000
b10000000 aaaab
b100000000000000000000000000000000000000000000000000000000000000000000000000000000000000000000000000000000000000000000000000000000 aaaac

#650000
b10000001 aaaab
b1000000000000000000000000000000000000000000000000000000000000000000000000000000000000000000000000000000000000000000000000000000000 aaaac

#655000
b10000010 aaaab
b10000000000000000000000000000000000000000000000000000000000000000000000000000000000000000000000000000000000000000000000000000000000 aaaac

#660000
b10000011 aaaab
b100000000000000000000000000000000000000000000000000000000000000000000000000000000000000000000000000000000000000000000000000000000000 aaaac

#665000
b10000100 aaaab
b1000000000000000000000000000000000000000000000000000000000000000000000000000000000000000000000000000000000000000000000000000000000000 aaaac

#670000
b10000101 aaaab
b10000000000000000000000000000000000000000000000000000000000000000000000000000000000000000000000000000000000000000000000000000000000000 aaaac

#675000
b10000110 aaaab
b100000000000000000000000000000000000000000000000000000000000000000000000000000000000000000000000000000000000000000000000000000000000000 aaaac

#680000
b10000111 aaaab
b1000000000000000000000000000000000000000000000000000000000000000000000000000000000000000000000000000000000000000000000000000000000000000 aaaac

#685000
b10001000 aaaab
b10000000000000000000000000000000000000000000000000000000000000000000000000000000000000000000000000000000000000000000000000000000000000000 aaaac

#690000
b10001001 aaaab
b100000000000000000000000000000000000000000000000000000000000000000000000000000000000000000000000000000000000000000000000000000000000000000 aaaac

#695000
b10001010 aaaab
b1000000000000000000000000000000000000000000000000000000000000000000000000000000000000000000000000000000000000000000000000000000000000000000 aaaac

#700000
b10001011 aaaab
b10000000000000000000000000000000000000000000000000000000000000000000000000000000000000000000000000000000000000000000000000000000000000000000 aaaac

#705000
b10001100 aaaab
b100000000000000000000000000000000000000000000000000000000000000000000000000000000000000000000000000000000000000000000000000000000000000000000 aaaac

#710000
b10001101 aaaab
b1000000000000000000000000000000000000000000000000000000000000000000000000000000000000000000000000000000000000000000000000000000000000000000000 aaaac

#715000
b10001110 aaaab
b10000000000000000000000000000000000000000000000000000000000000000000000000000000000000000000000000000000000000000000000000000000000000000000000 aaaac

#720000
b10001111 aaaab
b100000000000000000000000000000000000000000000000000000000000000000000000000000000000000000000000000000000000000000000000000000000000000000000000 aaaac

#725000
b10010000 aaaab
b1000000000000000000000000000000000000000000000000000000000000000000000000000000000000000000000000000000000000000000000000000000000000000000000000 aaaac

#730000
b10010001 aaaab
b10000000000000000000000000000000000000000000000000000000000000000000000000000000000000000000000000000000000000000000000000000000000000000000000000 aaaac

#735000
b10010010 aaaab
b100000000000000000000000000000000000000000000000000000000000000000000000000000000000000000000000000000000000000000000000000000000000000000000000000 aaaac

#740000
b10010011 aaaab
b1000000000000000000000000000000000000000000000000000000000000000000000000000000000000000000000000000000000000000000000000000000000000000000000000000 aaaac

#745000
b10010100 aaaab
b10000000000000000000000000000000000000000000000000000000000000000000000000000000000000000000000000000000000000000000000000000000000000000000000000000 aaaac

#750000
b10010101 aaaab
b100000000000000000000000000000000000000000000000000000000000000000000000000000000000000000000000000000000000000000000000000000000000000000000000000000 aaaac

#755000
b10010110 aaaab
b1000000000000000000000000000000000000000000000000000000000000000000000000000000000000000000000000000000000000000000000000000000000000000000000000000000 aaaac

#760000
b10010111 aaaab
b10000000000000000000000000000000000000000000000000000000000000000000000000000000000000000000000000000000000000000000000000000000000000000000000000000000 aaaac

#765000
b10011000 aaaab
b100000000000000000000000000000000000000000000000000000000000000000000000000000000000000000000000000000000000000000000000000000000000000000000000000000000 aaaac

#770000
b10011001 aaaab
b1000000000000000000000000000000000000000000000000000000000000000000000000000000000000000000000000000000000000000000000000000000000000000000000000000000000 aaaac

#775000
b10011010 aaaab
b10000000000000000000000000000000000000000000000000000000000000000000000000000000000000000000000000000000000000000000000000000000000000000000000000000000000 aaaac

#780000
b10011011 aaaab
b100000000000000000000000000000000000000000000000000000000000000000000000000000000000000000000000000000000000000000000000000000000000000000000000000000000000 aaaac

#785000
b10011100 aaaab
b1000000000000000000000000000000000000000000000000000000000000000000000000000000000000000000000000000000000000000000000000000000000000000000000000000000000000 aaaac

#790000
b10011101 aaaab
b10000000000000000000000000000000000000000000000000000000000000000000000000000000000000000000000000000000000000000000000000000000000000000000000000000000000000 aaaac

#795000
b10011110 aaaab
b100000000000000000000000000000000000000000000000000000000000000000000000000000000000000000000000000000000000000000000000000000000000000000000000000000000000000 aaaac

#800000
b10011111 aaaab
b1000000000000000000000000000000000000000000000000000000000000000000000000000000000000000000000000000000000000000000000000000000000000000000000000000000000000000 aaaac

#805000
b10100000 aaaab
b10000000000000000000000000000000000000000000000000000000000000000000000000000000000000000000000000000000000000000000000000000000000000000000000000000000000000000 aaaac

#810000
b10100001 aaaab
b100000000000000000000000000000000000000000000000000000000000000000000000000000000000000000000000000000000000000000000000000000000000000000000000000000000000000000 aaaac

#815000
b10100010 aaaab
b1000000000000000000000000000000000000000000000000000000000000000000000000000000000000000000000000000000000000000000000000000000000000000000000000000000000000000000 aaaac

#820000
b10100011 aaaab
b10000000000000000000000000000000000000000000000000000000000000000000000000000000000000000000000000000000000000000000000000000000000000000000000000000000000000000000 aaaac

#825000
b10100100 aaaab
b100000000000000000000000000000000000000000000000000000000000000000000000000000000000000000000000000000000000000000000000000000000000000000000000000000000000000000000 aaaac

#830000
b10100101 aaaab
b1000000000000000000000000000000000000000000000000000000000000000000000000000000000000000000000000000000000000000000000000000000000000000000000000000000000000000000000 aaaac

#835000
b10100110 aaaab
b10000000000000000000000000000000000000000000000000000000000000000000000000000000000000000000000000000000000000000000000000000000000000000000000000000000000000000000000 aaaac

#840000
b10100111 aaaab
b100000000000000000000000000000000000000000000000000000000000000000000000000000000000000000000000000000000000000000000000000000000000000000000000000000000000000000000000 aaaac

#845000
b10101000 aaaab
b1000000000000000000000000000000000000000000000000000000000000000000000000000000000000000000000000000000000000000000000000000000000000000000000000000000000000000000000000 aaaac

#850000
b10101001 aaaab
b10000000000000000000000000000000000000000000000000000000000000000000000000000000000000000000000000000000000000000000000000000000000000000000000000000000000000000000000000 aaaac

#855000
b10101010 aaaab
b100000000000000000000000000000000000000000000000000000000000000000000000000000000000000000000000000000000000000000000000000000000000000000000000000000000000000000000000000 aaaac

#860000
b10101011 aaaab
b1000000000000000000000000000000000000000000000000000000000000000000000000000000000000000000000000000000000000000000000000000000000000000000000000000000000000000000000000000 aaaac

#865000
b10101100 aaaab
b10000000000000000000000000000000000000000000000000000000000000000000000000000000000000000000000000000000000000000000000000000000000000000000000000000000000000000000000000000 aaaac

#870000
b10101101 aaaab
b100000000000000000000000000000000000000000000000000000000000000000000000000000000000000000000000000000000000000000000000000000000000000000000000000000000000000000000000000000 aaaac

#875000
b10101110 aaaab
b1000000000000000000000000000000000000000000000000000000000000000000000000000000000000000000000000000000000000000000000000000000000000000000000000000000000000000000000000000000 aaaac

#880000
b10101111 aaaab
b10000000000000000000000000000000000000000000000000000000000000000000000000000000000000000000000000000000000000000000000000000000000000000000000000000000000000000000000000000000 aaaac

#885000
b10110000 aaaab
b100000000000000000000000000000000000000000000000000000000000000000000000000000000000000000000000000000000000000000000000000000000000000000000000000000000000000000000000000000000 aaaac

#890000
b10110001 aaaab
b1000000000000000000000000000000000000000000000000000000000000000000000000000000000000000000000000000000000000000000000000000000000000000000000000000000000000000000000000000000000 aaaac

#895000
b10110010 aaaab
b10000000000000000000000000000000000000000000000000000000000000000000000000000000000000000000000000000000000000000000000000000000000000000000000000000000000000000000000000000000000 aaaac

#900000
b10110011 aaaab
b100000000000000000000000000000000000000000000000000000000000000000000000000000000000000000000000000000000000000000000000000000000000000000000000000000000000000000000000000000000000 aaaac

#905000
b10110100 aaaab
b1000000000000000000000000000000000000000000000000000000000000000000000000000000000000000000000000000000000000000000000000000000000000000000000000000000000000000000000000000000000000 aaaac

#910000
b10110101 aaaab
b10000000000000000000000000000000000000000000000000000000000000000000000000000000000000000000000000000000000000000000000000000000000000000000000000000000000000000000000000000000000000 aaaac

#915000
b10110110 aaaab
b100000000000000000000000000000000000000000000000000000000000000000000000000000000000000000000000000000000000000000000000000000000000000000000000000000000000000000000000000000000000000 aaaac

#920000
b10110111 aaaab
b1000000000000000000000000000000000000000000000000000000000000000000000000000000000000000000000000000000000000000000000000000000000000000000000000000000000000000000000000000000000000000 aaaac

#925000
b10111000 aaaab
b10000000000000000000000000000000000000000000000000000000000000000000000000000000000000000000000000000000000000000000000000000000000000000000000000000000000000000000000000000000000000000 aaaac

#930000
b10111001 aaaab
b100000000000000000000000000000000000000000000000000000000000000000000000000000000000000000000000000000000000000000000000000000000000000000000000000000000000000000000000000000000000000000 aaaac

#935000
b10111010 aaaab
b1000000000000000000000000000000000000000000000000000000000000000000000000000000000000000000000000000000000000000000000000000000000000000000000000000000000000000000000000000000000000000000 aaaac

#940000
b10111011 aaaab
b10000000000000000000000000000000000000000000000000000000000000000000000000000000000000000000000000000000000000000000000000000000000000000000000000000000000000000000000000000000000000000000 aaaac

#945000
b10111100 aaaab
b100000000000000000000000000000000000000000000000000000000000000000000000000000000000000000000000000000000000000000000000000000000000000000000000000000000000000000000000000000000000000000000 aaaac

#950000
b10111101 aaaab
b1000000000000000000000000000000000000000000000000000000000000000000000000000000000000000000000000000000000000000000000000000000000000000000000000000000000000000000000000000000000000000000000 aaaac

#955000
b10111110 aaaab
b10000000000000000000000000000000000000000000000000000000000000000000000000000000000000000000000000000000000000000000000000000000000000000000000000000000000000000000000000000000000000000000000 aaaac

#960000
b10111111 aaaab
b100000000000000000000000000000000000000000000000000000000000000000000000000000000000000000000000000000000000000000000000000000000000000000000000000000000000000000000000000000000000000000000000 aaaac

#965000
b11000000 aaaab
b1000000000000000000000000000000000000000000000000000000000000000000000000000000000000000000000000000000000000000000000000000000000000000000000000000000000000000000000000000000000000000000000000 aaaac

#970000
b11000001 aaaab
b10000000000000000000000000000000000000000000000000000000000000000000000000000000000000000000000000000000000000000000000000000000000000000000000000000000000000000000000000000000000000000000000000 aaaac

#975000
b11000010 aaaab
b100000000000000000000000000000000000000000000000000000000000000000000000000000000000000000000000000000000000000000000000000000000000000000000000000000000000000000000000000000000000000000000000000 aaaac

#980000
b11000011 aaaab
b1000000000000000000000000000000000000000000000000000000000000000000000000000000000000000000000000000000000000000000000000000000000000000000000000000000000000000000000000000000000000000000000000000 aaaac

#985000
b11000100 aaaab
b10000000000000000000000000000000000000000000000000000000000000000000000000000000000000000000000000000000000000000000000000000000000000000000000000000000000000000000000000000000000000000000000000000 aaaac

#990000
b11000101 aaaab
b100000000000000000000000000000000000000000000000000000000000000000000000000000000000000000000000000000000000000000000000000000000000000000000000000000000000000000000000000000000000000000000000000000 aaaac

#995000
b11000110 aaaab
b1000000000000000000000000000000000000000000000000000000000000000000000000000000000000000000000000000000000000000000000000000000000000000000000000000000000000000000000000000000000000000000000000000000 aaaac

#1000000
b11000111 aaaab
b10000000000000000000000000000000000000000000000000000000000000000000000000000000000000000000000000000000000000000000000000000000000000000000000000000000000000000000000000000000000000000000000000000000 aaaac

#1005000
b11001000 aaaab
b100000000000000000000000000000000000000000000000000000000000000000000000000000000000000000000000000000000000000000000000000000000000000000000000000000000000000000000000000000000000000000000000000000000 aaaac

#1010000
b11001001 aaaab
b1000000000000000000000000000000000000000000000000000000000000000000000000000000000000000000000000000000000000000000000000000000000000000000000000000000000000000000000000000000000000000000000000000000000 aaaac

#1015000
b11001010 aaaab
b10000000000000000000000000000000000000000000000000000000000000000000000000000000000000000000000000000000000000000000000000000000000000000000000000000000000000000000000000000000000000000000000000000000000 aaaac

#1020000
b11001011 aaaab
b100000000000000000000000000000000000000000000000000000000000000000000000000000000000000000000000000000000000000000000000000000000000000000000000000000000000000000000000000000000000000000000000000000000000 aaaac

#1025000
b11001100 aaaab
b1000000000000000000000000000000000000000000000000000000000000000000000000000000000000000000000000000000000000000000000000000000000000000000000000000000000000000000000000000000000000000000000000000000000000 aaaac

#1030000
b11001101 aaaab
b10000000000000000000000000000000000000000000000000000000000000000000000000000000000000000000000000000000000000000000000000000000000000000000000000000000000000000000000000000000000000000000000000000000000000 aaaac

#1035000
b11001110 aaaab
b100000000000000000000000000000000000000000000000000000000000000000000000000000000000000000000000000000000000000000000000000000000000000000000000000000000000000000000000000000000000000000000000000000000000000 aaaac

#1040000
b11001111 aaaab
b1000000000000000000000000000000000000000000000000000000000000000000000000000000000000000000000000000000000000000000000000000000000000000000000000000000000000000000000000000000000000000000000000000000000000000 aaaac

#1045000
b11010000 aaaab
b10000000000000000000000000000000000000000000000000000000000000000000000000000000000000000000000000000000000000000000000000000000000000000000000000000000000000000000000000000000000000000000000000000000000000000 aaaac

#1050000
b11010001 aaaab
b100000000000000000000000000000000000000000000000000000000000000000000000000000000000000000000000000000000000000000000000000000000000000000000000000000000000000000000000000000000000000000000000000000000000000000 aaaac

#1055000
b11010010 aaaab
b1000000000000000000000000000000000000000000000000000000000000000000000000000000000000000000000000000000000000000000000000000000000000000000000000000000000000000000000000000000000000000000000000000000000000000000 aaaac

#1060000
b11010011 aaaab
b10000000000000000000000000000000000000000000000000000000000000000000000000000000000000000000000000000000000000000000000000000000000000000000000000000000000000000000000000000000000000000000000000000000000000000000 aaaac

#1065000
b11010100 aaaab
b100000000000000000000000000000000000000000000000000000000000000000000000000000000000000000000000000000000000000000000000000000000000000000000000000000000000000000000000000000000000000000000000000000000000000000000 aaaac

#1070000
b11010101 aaaab
b1000000000000000000000000000000000000000000000000000000000000000000000000000000000000000000000000000000000000000000000000000000000000000000000000000000000000000000000000000000000000000000000000000000000000000000000 aaaac

#1075000
b11010110 aaaab
b10000000000000000000000000000000000000000000000000000000000000000000000000000000000000000000000000000000000000000000000000000000000000000000000000000000000000000000000000000000000000000000000000000000000000000000000 aaaac

#1080000
b11010111 aaaab
b100000000000000000000000000000000000000000000000000000000000000000000000000000000000000000000000000000000000000000000000000000000000000000000000000000000000000000000000000000000000000000000000000000000000000000000000 aaaac

#1085000
b11011000 aaaab
b1000000000000000000000000000000000000000000000000000000000000000000000000000000000000000000000000000000000000000000000000000000000000000000000000000000000000000000000000000000000000000000000000000000000000000000000000 aaaac

#1090000
b11011001 aaaab
b10000000000000000000000000000000000000000000000000000000000000000000000000000000000000000000000000000000000000000000000000000000000000000000000000000000000000000000000000000000000000000000000000000000000000000000000000 aaaac

#1095000
b11011010 aaaab
b100000000000000000000000000000000000000000000000000000000000000000000000000000000000000000000000000000000000000000000000000000000000000000000000000000000000000000000000000000000000000000000000000000000000000000000000000 aaaac

#1100000
b11011011 aaaab
b1000000000000000000000000000000000000000000000000000000000000000000000000000000000000000000000000000000000000000000000000000000000000000000000000000000000000000000000000000000000000000000000000000000000000000000000000000 aaaac

#1105000
b11011100 aaaab
b10000000000000000000000000000000000000000000000000000000000000000000000000000000000000000000000000000000000000000000000000000000000000000000000000000000000000000000000000000000000000000000000000000000000000000000000000000 aaaac

#1110000
b11011101 aaaab
b100000000000000000000000000000000000000000000000000000000000000000000000000000000000000000000000000000000000000000000000000000000000000000000000000000000000000000000000000000000000000000000000000000000000000000000000000000 aaaac

#1115000
b11011110 aaaab
b1000000000000000000000000000000000000000000000000000000000000000000000000000000000000000000000000000000000000000000000000000000000000000000000000000000000000000000000000000000000000000000000000000000000000000000000000000000 aaaac

#1120000
b11011111 aaaab
b10000000000000000000000000000000000000000000000000000000000000000000000000000000000000000000000000000000000000000000000000000000000000000000000000000000000000000000000000000000000000000000000000000000000000000000000000000000 aaaac

#1125000
b11100000 aaaab
b100000000000000000000000000000000000000000000000000000000000000000000000000000000000000000000000000000000000000000000000000000000000000000000000000000000000000000000000000000000000000000000000000000000000000000000000000000000 aaaac

#1130000
b11100001 aaaab
b1000000000000000000000000000000000000000000000000000000000000000000000000000000000000000000000000000000000000000000000000000000000000000000000000000000000000000000000000000000000000000000000000000000000000000000000000000000000 aaaac

#1135000
b11100010 aaaab
b10000000000000000000000000000000000000000000000000000000000000000000000000000000000000000000000000000000000000000000000000000000000000000000000000000000000000000000000000000000000000000000000000000000000000000000000000000000000 aaaac

#1140000
b11100011 aaaab
b100000000000000000000000000000000000000000000000000000000000000000000000000000000000000000000000000000000000000000000000000000000000000000000000000000000000000000000000000000000000000000000000000000000000000000000000000000000000 aaaac

#1145000
b11100100 aaaab
b1000000000000000000000000000000000000000000000000000000000000000000000000000000000000000000000000000000000000000000000000000000000000000000000000000000000000000000000000000000000000000000000000000000000000000000000000000000000000 aaaac

#1150000
b11100101 aaaab
b10000000000000000000000000000000000000000000000000000000000000000000000000000000000000000000000000000000000000000000000000000000000000000000000000000000000000000000000000000000000000000000000000000000000000000000000000000000000000 aaaac

#1155000
b11100110 aaaab
b100000000000000000000000000000000000000000000000000000000000000000000000000000000000000000000000000000000000000000000000000000000000000000000000000000000000000000000000000000000000000000000000000000000000000000000000000000000000000 aaaac

#1160000
b11100111 aaaab
b1000000000000000000000000000000000000000000000000000000000000000000000000000000000000000000000000000000000000000000000000000000000000000000000000000000000000000000000000000000000000000000000000000000000000000000000000000000000000000 aaaac

#1165000
b11101000 aaaab
b10000000000000000000000000000000000000000000000000000000000000000000000000000000000000000000000000000000000000000000000000000000000000000000000000000000000000000000000000000000000000000000000000000000000000000000000000000000000000000 aaaac

#1170000
b11101001 aaaab
b100000000000000000000000000000000000000000000000000000000000000000000000000000000000000000000000000000000000000000000000000000000000000000000000000000000000000000000000000000000000000000000000000000000000000000000000000000000000000000 aaaac

#1175000
b11101010 aaaab
b1000000000000000000000000000000000000000000000000000000000000000000000000000000000000000000000000000000000000000000000000000000000000000000000000000000000000000000000000000000000000000000000000000000000000000000000000000000000000000000 aaaac

#1180000
b11101011 aaaab
b10000000000000000000000000000000000000000000000000000000000000000000000000000000000000000000000000000000000000000000000000000000000000000000000000000000000000000000000000000000000000000000000000000000000000000000000000000000000000000000 aaaac

#1185000
b11101100 aaaab
b100000000000000000000000000000000000000000000000000000000000000000000000000000000000000000000000000000000000000000000000000000000000000000000000000000000000000000000000000000000000000000000000000000000000000000000000000000000000000000000 aaaac

#1190000
b11101101 aaaab
b1000000000000000000000000000000000000000000000000000000000000000000000000000000000000000000000000000000000000000000000000000000000000000000000000000000000000000000000000000000000000000000000000000000000000000000000000000000000000000000000 aaaac

#1195000
b11101110 aaaab
b10000000000000000000000000000000000000000000000000000000000000000000000000000000000000000000000000000000000000000000000000000000000000000000000000000000000000000000000000000000000000000000000000000000000000000000000000000000000000000000000 aaaac

#1200000
b11101111 aaaab
b100000000000000000000000000000000000000000000000000000000000000000000000000000000000000000000000000000000000000000000000000000000000000000000000000000000000000000000000000000000000000000000000000000000000000000000000000000000000000000000000 aaaac

